Project/hw/simple_interface/vivado/.Xil/Vivado-138029-co2050-01.ece.iastate.edu/hw_ila_data_1/zip_work/waveform.vcd
$date
        2025-Dec-05 18:42:26
$end
$version
        Vivado v2020.1 (64-bit)
$end
$timescale
        1ps
$end
$scope module dut $end
$var reg 32 " staged_mac_bd_i/system_ila_0/inst/net_slot_0_axis_tdata [31:0] $end
$var reg 8 B staged_mac_bd_i/system_ila_0/inst/net_slot_0_axis_tid [7:0] $end
$var reg 1 J staged_mac_bd_i/system_ila_0/inst/net_slot_0_axis_tvalid $end
$var reg 1 K staged_mac_bd_i/system_ila_0/inst/net_slot_0_axis_tready $end
$var reg 1 L staged_mac_bd_i/system_ila_0/inst/net_slot_0_axis_tlast $end
$var reg 32 M staged_mac_bd_i/system_ila_0/inst/net_slot_1_axis_tdata [31:0] $end
$var reg 8 m staged_mac_bd_i/system_ila_0/inst/net_slot_1_axis_tid [7:0] $end
$var reg 1 u staged_mac_bd_i/system_ila_0/inst/net_slot_1_axis_tvalid $end
$var reg 1 v staged_mac_bd_i/system_ila_0/inst/net_slot_1_axis_tready $end
$var reg 1 w staged_mac_bd_i/system_ila_0/inst/net_slot_1_axis_tlast $end
$var reg 3 x Interface__i1_s0___axi_fifo_mm_s_0_AXI_STR_TXD_ [2:0] $end
$var reg 3 { Interface__i1_s1___piped_mac_0_MO_AXIS_ [2:0] $end
$var reg 3 ~ T_Channel__i1_s0___axi_fifo_mm_s_0_AXI_STR_TXD_ [2:0] $end
$var reg 3 #" T_Channel__i1_s1___piped_mac_0_MO_AXIS_ [2:0] $end
$var reg 1 &" _TRIGGER $end
$var reg 1 '" _WINDOW $end
$var reg 1 (" _GAP $end
$upscope $end
$enddefinitions $end
#0
$dumpvars
b10111110001001111110101100111101 "
b0 B
0J
1K
0L
b0 M
b0 m
0u
1v
0w
b0 x
b0 {
b0 ~
b0 #"
0&"
1'"
0("
$end
#8
b111100101000001010000010100001 "
1J
b1 x
b1 ~
#9
0J
0K
b0 x
b0 ~
#27
1K
#28
b111101111101010001000101110010 "
1J
b1 x
b1 ~
#29
0J
b0 x
b0 ~
#54
b111110000101001001010010010101 "
1J
b1 x
b1 ~
#55
0J
0K
b0 x
b0 ~
#73
1K
#74
b111101001101111101100001101001 "
1J
b1 x
b1 ~
#75
0J
b0 x
b0 ~
#98
b111110000111001001110010011101 "
1J
b1 x
b1 ~
#99
0J
0K
b0 x
b0 ~
#117
1K
#118
b10111101101111000110110011011011 "
1J
b1 x
b1 ~
#119
0J
b0 x
b0 ~
#143
b111101100110001001100010011001 "
1J
b1 x
b1 ~
#144
0J
0K
b0 x
b0 ~
#162
1K
#163
b111101100000010001010101100100 "
1J
b1 x
b1 ~
#164
0J
b0 x
b0 ~
#188
b111100101000001010000010100001 "
1J
b1 x
b1 ~
#189
0J
0K
b0 x
b0 ~
#207
1K
#208
b111101010101000011011010011000 "
1J
b1 x
b1 ~
#209
0J
b0 x
b0 ~
#233
b111111000010101000101010001011 "
1J
b1 x
b1 ~
#234
0J
0K
b0 x
b0 ~
#252
1K
#253
b10111101010110010011111110100010 "
1J
b1 x
b1 ~
#254
0J
b0 x
b0 ~
#280
b111110100011001000110010001101 "
1J
b1 x
b1 ~
#281
0J
0K
b0 x
b0 ~
#299
1K
#300
b10111101111000010110001010100111 "
1J
b1 x
b1 ~
#301
0J
b0 x
b0 ~
#325
b111111001111001011110010111101 "
1J
b1 x
b1 ~
#326
0J
0K
b0 x
b0 ~
#344
1K
#345
b10111011010100101010100000010001 "
1J
b1 x
b1 ~
#346
0J
b0 x
b0 ~
#369
b111111010111101101111011011111 "
1J
b1 x
b1 ~
#370
0J
0K
b0 x
b0 ~
#388
1K
#389
b10111100110111001011101111100101 "
1J
b1 x
b1 ~
#390
0J
b0 x
b0 ~
#422
b111111001010111010101110101100 "
1J
b1 x
b1 ~
#423
0J
0K
b0 x
b0 ~
#441
1K
#442
b111101101110011000111111000100 "
1J
b1 x
b1 ~
#443
0J
b0 x
b0 ~
#467
b111110010100001101000011010001 "
1J
b1 x
b1 ~
#468
0J
0K
b0 x
b0 ~
#486
1K
#487
b111101100001011010000110110010 "
1J
b1 x
b1 ~
#488
0J
b0 x
b0 ~
#512
b111111000100101001001010010011 "
1J
1L
b1 x
b10 ~
1&"
#513
0J
0K
b0 x
b0 ~
#532
1K
b111101101111110001110010010011 M
1u
1w
b1 {
b10 #"
#533
0u
0w
b0 {
b0 #"
#579
b10111100101011011101111010000001 "
1J
0L
b1 x
b1 ~
#580
0J
b0 x
b0 ~
#603
b111111001110001011100010111001 "
1J
b1 x
b1 ~
#604
0J
0K
b0 x
b0 ~
#622
1K
#623
b111101001000001001011110001010 "
1J
b1 x
b1 ~
#624
0J
b0 x
b0 ~
#644
b111111010010111100101111001100 "
1J
b1 x
b1 ~
#645
0J
0K
b0 x
b0 ~
#663
1K
#664
b111100111110010001000010101110 "
1J
b1 x
b1 ~
#665
0J
b0 x
b0 ~
#685
b111111010110001101100011011001 "
1J
b1 x
b1 ~
#686
0J
0K
b0 x
b0 ~
#704
1K
#705
b10111101111100101011110110100011 "
1J
b1 x
b1 ~
#706
0J
b0 x
b0 ~
#726
b111110010100001101000011010001 "
1J
b1 x
b1 ~
#727
0J
0K
b0 x
b0 ~
#745
1K
#746
b10111110000110000101100011011000 "
1J
b1 x
b1 ~
#747
0J
b0 x
b0 ~
#770
b111111100000000000000000000000 "
1J
b1 x
b1 ~
#771
0J
0K
b0 x
b0 ~
#789
1K
#790
b111101011111000111110010101110 "
1J
b1 x
b1 ~
#791
0J
b0 x
b0 ~
#811
b111100111000001110000011100001 "
1J
b1 x
b1 ~
#812
0J
0K
b0 x
b0 ~
#830
1K
#831
b10111101100110110110001010000111 "
1J
b1 x
b1 ~
#832
0J
b0 x
b0 ~
#852
b111110011101001111010011110101 "
1J
b1 x
b1 ~
#853
0J
0K
b0 x
b0 ~
#871
1K
#872
b10111101001101010011000011010001 "
1J
b1 x
b1 ~
#873
0J
b0 x
b0 ~
#894
b111111000111101001111010011111 "
1J
b1 x
b1 ~
#895
0J
0K
b0 x
b0 ~
#913
1K
#914
b10111101000001100011011110011010 "
1J
b1 x
b1 ~
#915
0J
b0 x
b0 ~
#935
b111111000111111001111110100000 "
1J
b1 x
b1 ~
#936
0J
0K
b0 x
b0 ~
#954
1K
#955
b111011100000110110010110111010 "
1J
b1 x
b1 ~
#956
0J
b0 x
b0 ~
#979
b111111001000111010001110100100 "
1J
b1 x
b1 ~
#980
0J
0K
b0 x
b0 ~
#998
1K
#999
b10111101010100110111000001010101 "
1J
b1 x
b1 ~
#1000
0J
b0 x
b0 ~
#1020
b111111010011101100111011001111 "
1J
b1 x
b1 ~
#1021
0J
0K
b0 x
b0 ~
